[gd_scene load_steps=5 format=2]

[ext_resource path="res://Assets/splash.png" type="Texture" id=1]
[ext_resource path="res://Fonts/Bold1.tres" type="DynamicFont" id=2]
[ext_resource path="res://Fonts/Future1.tres" type="DynamicFont" id=3]
[ext_resource path="res://Scripts/Main.gd" type="Script" id=4]

[node name="WinScreen" type="Node2D"]

[node name="Sprite" type="Sprite" parent="."]
position = Vector2( 200.073, 88.9415 )
scale = Vector2( 0.556646, 0.556646 )
texture = ExtResource( 1 )

[node name="Label" type="Label" parent="."]
margin_left = 95.0
margin_top = 20.0
margin_right = 200.0
margin_bottom = 50.0
custom_fonts/font = ExtResource( 2 )
custom_colors/font_color = Color( 0.517647, 0.552941, 0.0784314, 1 )
text = "YOU WIN!"

[node name="LinkButton" type="LinkButton" parent="."]
margin_left = 100.0
margin_top = 90.0
margin_right = 190.0
margin_bottom = 34.0
custom_fonts/font = ExtResource( 3 )
text = "Main Menu"
script = ExtResource( 4 )
scene_to_load = "MainMenu"
[connection signal="pressed" from="LinkButton" to="LinkButton" method="_on_LinkButton_pressed"]
